%YAML 1.1
%TAG !u! tag:unity3d.com,2011:
--- !u!114 &11400000
MonoBehaviour:
  m_ObjectHideFlags: 0
  m_CorrespondingSourceObject: {fileID: 0}
  m_PrefabInstance: {fileID: 0}
  m_PrefabAsset: {fileID: 0}
  m_GameObject: {fileID: 0}
  m_Enabled: 1
  m_EditorHideFlags: 0
  m_Script: {fileID: 11500000, guid: 9386b7ba0a35a514fb81b19bba5faeef, type: 3}
  m_Name: Metal 6
  m_EditorClassIdentifier: 
  RussianName: "\u041C\u0435\u0442\u0430\u043B"
  Material: {fileID: 2100000, guid: 049c01e34bda0184da0fc92b0e5558f8, type: 2}
  Density: 0.7
  Type: 13
