%YAML 1.1
%TAG !u! tag:unity3d.com,2011:
--- !u!114 &11400000
MonoBehaviour:
  m_ObjectHideFlags: 0
  m_CorrespondingSourceObject: {fileID: 0}
  m_PrefabInstance: {fileID: 0}
  m_PrefabAsset: {fileID: 0}
  m_GameObject: {fileID: 0}
  m_Enabled: 1
  m_EditorHideFlags: 0
  m_Script: {fileID: 11500000, guid: 9386b7ba0a35a514fb81b19bba5faeef, type: 3}
  m_Name: Plastic
  m_EditorClassIdentifier: 
  RussianName: "\u041F\u043B\u0430\u0441\u0442\u0438\u043A"
  Material: {fileID: 2100000, guid: 2e793bc7e8058524e817a3d20c49c8d7, type: 2}
  Density: 0.35
  Type: 1
