%YAML 1.1
%TAG !u! tag:unity3d.com,2011:
--- !u!114 &11400000
MonoBehaviour:
  m_ObjectHideFlags: 0
  m_CorrespondingSourceObject: {fileID: 0}
  m_PrefabInstance: {fileID: 0}
  m_PrefabAsset: {fileID: 0}
  m_GameObject: {fileID: 0}
  m_Enabled: 1
  m_EditorHideFlags: 0
  m_Script: {fileID: 11500000, guid: 9386b7ba0a35a514fb81b19bba5faeef, type: 3}
  m_Name: Rust 1
  m_EditorClassIdentifier: 
  RussianName: "\u0420\u0436\u0430\u0432\u0447\u0438\u043D\u0430"
  Material: {fileID: 2100000, guid: d38dc3c93fb63c2468dfee0d563f2a0b, type: 2}
  Density: 0.63
  Type: 16
