%YAML 1.1
%TAG !u! tag:unity3d.com,2011:
--- !u!114 &11400000
MonoBehaviour:
  m_ObjectHideFlags: 0
  m_CorrespondingSourceObject: {fileID: 0}
  m_PrefabInstance: {fileID: 0}
  m_PrefabAsset: {fileID: 0}
  m_GameObject: {fileID: 0}
  m_Enabled: 1
  m_EditorHideFlags: 0
  m_Script: {fileID: 11500000, guid: 4f02cb6a2ab51c0419aeee7dfa0292af, type: 3}
  m_Name: ArchDataBase
  m_EditorClassIdentifier: 
  groupBase: 1
  groupName: "\u0410\u0440\u043A\u0438"
  spriteGroup: {fileID: 21300000, guid: e6087929021ff004a828605e5fa82a23, type: 3}
  details:
  - {fileID: 5476244875808198881, guid: c3c693fa3b4325643b478dff05243f5a, type: 3}
  - {fileID: 6966240443140261484, guid: ad256f1b8d1e8464389d46e6511fd13f, type: 3}
  - {fileID: 9166625010804963497, guid: 3c2bebc340beb154fa0c4ce1fff4ce81, type: 3}
  - {fileID: 3780734815365937583, guid: f874c6eed28ea4c4196048a898f8e0c3, type: 3}
  - {fileID: 5284513401996049017, guid: 3b4d53b288dc21349af6e617ad9ada5d, type: 3}
  - {fileID: 5970985514808481764, guid: b920fb3814b736d4cb95311ff06ab845, type: 3}
  - {fileID: 5495822431146309514, guid: eb9663b76bd95df46b47361c1c9f3a87, type: 3}
  - {fileID: 7009216229455249309, guid: 84358cdf7f8d7ff4a958d5d9ff755938, type: 3}
  - {fileID: 6876683673439127418, guid: caf518c2ef703ed49a5be787da43db79, type: 3}
  - {fileID: 6582232000774620793, guid: 789b12957a9457e4085cfbbf61daf002, type: 3}
  - {fileID: 5070666370666684371, guid: b3e03f7f8a05e3646ac1c3b7da5924a9, type: 3}
  - {fileID: 1957076387055777191, guid: bd401fdcacc6b5a459b7f371a8db4c8e, type: 3}
  - {fileID: 8830919736030045805, guid: 0e1179c1e4adf4d47a4ba876fbab35ef, type: 3}
  - {fileID: 5511261299247844239, guid: bf1deeb5ccd9b2f46b6a3cf7aaca3aef, type: 3}
  - {fileID: 3528855491995542205, guid: f3e854ff2e9c973418c5746f811cf5c7, type: 3}
  - {fileID: 4947053189301172411, guid: ef11508c4441b974d9bf5f8e09c83975, type: 3}
  - {fileID: 7014273263420517231, guid: 80f6773589e8aad40bd9e997158a21ff, type: 3}
