%YAML 1.1
%TAG !u! tag:unity3d.com,2011:
--- !u!114 &11400000
MonoBehaviour:
  m_ObjectHideFlags: 0
  m_CorrespondingSourceObject: {fileID: 0}
  m_PrefabInstance: {fileID: 0}
  m_PrefabAsset: {fileID: 0}
  m_GameObject: {fileID: 0}
  m_Enabled: 1
  m_EditorHideFlags: 0
  m_Script: {fileID: 11500000, guid: 4f02cb6a2ab51c0419aeee7dfa0292af, type: 3}
  m_Name: BeepDataBase
  m_EditorClassIdentifier: 
  groupBase: 29
  groupName: "\u0413\u0443\u0434\u043A\u0438"
  spriteGroup: {fileID: 21300000, guid: d484d6132a05e084281eebc22d9e9fd2, type: 3}
  details:
  - {fileID: 6714339132983279655, guid: c40a4cf33c29c764dafe8aac4a2ff67e, type: 3}
