%YAML 1.1
%TAG !u! tag:unity3d.com,2011:
--- !u!114 &11400000
MonoBehaviour:
  m_ObjectHideFlags: 0
  m_CorrespondingSourceObject: {fileID: 0}
  m_PrefabInstance: {fileID: 0}
  m_PrefabAsset: {fileID: 0}
  m_GameObject: {fileID: 0}
  m_Enabled: 1
  m_EditorHideFlags: 0
  m_Script: {fileID: 11500000, guid: 4f02cb6a2ab51c0419aeee7dfa0292af, type: 3}
  m_Name: DoorDataBase
  m_EditorClassIdentifier: 
  groupBase: 21
  groupName: "\u0414\u0432\u0435\u0440\u0438"
  spriteGroup: {fileID: 21300000, guid: 679c61b6f3c7b764e823c69a2b7625f1, type: 3}
  details:
  - {fileID: 6332210656859126925, guid: de8cc4b4858735943ab1d908c5cd2360, type: 3}
  - {fileID: 3461987203699219337, guid: a45d5ea3f68640944850fb7b35481959, type: 3}
  - {fileID: 6602571332882992621, guid: 37eaad6083dc11d4aa708a8506906b9a, type: 3}
  - {fileID: 1890612016527843209, guid: 548b646d57b70e14386c9e7a186c1e79, type: 3}
  - {fileID: 6149461742364249447, guid: 7634f274651fb7441a5b66d3301b915f, type: 3}
  - {fileID: 717847631379085961, guid: 1325bbb8abf38b14da76c64967f960d2, type: 3}
  - {fileID: 5358788412218247236, guid: 7e1136838a007994286d2dd4af7ec0db, type: 3}
  - {fileID: 8329595630783525584, guid: 169531f31d981aa40aa52639af2495e2, type: 3}
  - {fileID: 6408567567575796480, guid: 2826a353097c15a479c23e76176feeda, type: 3}
  - {fileID: 5767842401566110411, guid: 834f2a18a7a6c2c44b886a8048e3967d, type: 3}
  - {fileID: 5691859001466492868, guid: addeabd0ca328d84db3f4024c94a4cf6, type: 3}
  - {fileID: 6077043495163507700, guid: 0ee3569078c589b429394a022675ac9a, type: 3}
