%YAML 1.1
%TAG !u! tag:unity3d.com,2011:
--- !u!114 &11400000
MonoBehaviour:
  m_ObjectHideFlags: 0
  m_CorrespondingSourceObject: {fileID: 0}
  m_PrefabInstance: {fileID: 0}
  m_PrefabAsset: {fileID: 0}
  m_GameObject: {fileID: 0}
  m_Enabled: 1
  m_EditorHideFlags: 0
  m_Script: {fileID: 11500000, guid: 4f02cb6a2ab51c0419aeee7dfa0292af, type: 3}
  m_Name: SlopeDataBase
  m_EditorClassIdentifier: 
  groupBase: 9
  groupName: "\u041D\u0430\u043A\u043B\u043E\u043D\u044B"
  spriteGroup: {fileID: 21300000, guid: 9bfe1d019ff8e344999e72be45e93d9f, type: 3}
  details:
  - {fileID: 3492759946214785686, guid: 53610de4d2ba6f74d9d1f40c3f3b94ab, type: 3}
  - {fileID: 8507004783078528128, guid: 237f772c45567d44c868695f5131741f, type: 3}
  - {fileID: 5636776350110731960, guid: b79ba22f70918ce409afaa040946efa3, type: 3}
  - {fileID: 5198120944827532609, guid: 7d3cf89d46f52ff45b19f122fece0844, type: 3}
  - {fileID: 1737885188823068955, guid: 0a70d3a3d6a2e864ca8dac0039dc164a, type: 3}
  - {fileID: 2563870687022969952, guid: a089dd87bea333b488512cd9e86461c9, type: 3}
  - {fileID: 355694765467495015, guid: 16d90853b36918d45848823f3e40540f, type: 3}
  - {fileID: 588960944659796463, guid: ee2533bf51348124eba7f2c02f045586, type: 3}
  - {fileID: 1353273282223967786, guid: bb474676fffe8734991675aecf84f57d, type: 3}
  - {fileID: 478926388810665351, guid: a42a2ebe5160fe84c999b91ed93327c6, type: 3}
  - {fileID: 6271443988183656528, guid: 5af6e3cd8a1b97b4a8be6bc6fd9547fb, type: 3}
  - {fileID: 6153696577814978701, guid: 1edc315afe5f21d4e9d1f3bb96d618ef, type: 3}
  - {fileID: 586131685140267985, guid: b99aed372ab5a2d43b00d935018c7b81, type: 3}
  - {fileID: 8987497232524455131, guid: ab7463344f8cad840a2001b969968686, type: 3}
  - {fileID: 5790217124123426730, guid: fc9c8f42580b9504bb059c8a0ead0f5a, type: 3}
  - {fileID: 5458557652788152093, guid: b82b3233fc1ed0e46a712372d353c523, type: 3}
  - {fileID: 4015931449195498384, guid: a0e3be000f3bb7242ad87200c561a066, type: 3}
  - {fileID: 30613503366645675, guid: a5f21987f6e1b654b951455f53cc0e33, type: 3}
  - {fileID: 3076163465457166969, guid: d872e7ee6eb99a042aa21766d72cc570, type: 3}
  - {fileID: 5192206936894483743, guid: 5068e15b528d8ac41b4e6a44902b51b7, type: 3}
  - {fileID: 4405902234989746027, guid: 083926e1c03644c42baf204740a2d776, type: 3}
  - {fileID: 3438690617233065766, guid: 78d5bfb0951e91e4b899c125a922de06, type: 3}
  - {fileID: 1758097762251817058, guid: b1daf025e239cf840b65a20f96113afb, type: 3}
  - {fileID: 884600133562947071, guid: 5adc2341ba283df4b81a21c18205efd3, type: 3}
  - {fileID: 8942225186872242982, guid: 51c81c273ba3cc141bd5d85e484e1e65, type: 3}
  - {fileID: 4340792652205071638, guid: 20bb5b28eab02bd45a1c2c3340cdc746, type: 3}
  - {fileID: 8591818274994921503, guid: 898616b1fc7f1a142ab26317c1f82d1b, type: 3}
  - {fileID: 2132372931825383849, guid: 68069fe470bad8248ab0b9425df4103b, type: 3}
  - {fileID: 6271458653175072316, guid: c08be47b31a4b734a92b6af42e546c53, type: 3}
  - {fileID: 3912877549809313367, guid: da93da4fed3a38643a0436b127278f34, type: 3}
  - {fileID: 7835946241886292326, guid: 6eb6b240e9388154dad75408d41f96b9, type: 3}
  - {fileID: 6808351791564433737, guid: 5c31b2bcd35f956499f807ed938bda8e, type: 3}
  - {fileID: 4497798636244496204, guid: 9a9f5c2be10f00046b9865dce2cae164, type: 3}
  - {fileID: 7542507234221962324, guid: 85632a7473b3c3c4ba2f69039a729c5c, type: 3}
  - {fileID: 1012383674043980288, guid: c3ddadda25a980342bab6c6b41ddb844, type: 3}
  - {fileID: 1532409270861750821, guid: 1868b45067e30f041a6f00b2c2612ce4, type: 3}
  - {fileID: 6169992677807329703, guid: 9d5937ca825c09b46be21b446dafa0de, type: 3}
  - {fileID: 8359982191920383980, guid: 594e7671238c23f40bd5f154e3af5cc0, type: 3}
  - {fileID: 685403293494694671, guid: 1e431e457e73d8049a5dc1e19440bca0, type: 3}
  - {fileID: 3764271114016378346, guid: 61f7c5c745e303e4f8ca161c67aad757, type: 3}
  - {fileID: 3142188660021445671, guid: 0c1f4ce08d18f5142ae822c78e890ecd, type: 3}
  - {fileID: 2885413365808925354, guid: ebb6fbfd4643b664395e33fbefa2f9fc, type: 3}
  - {fileID: 7564282789240665165, guid: 0284eb93e8d25fa438f403edfaa3287c, type: 3}
  - {fileID: 5464282100895176108, guid: 88557e1de51845a42b362240f6407eb0, type: 3}
  - {fileID: 6703859887496759098, guid: ad955ae73f2ba7345ad430964601a4b7, type: 3}
  - {fileID: 3612241302739209491, guid: e909112efea8185458be2dced1441176, type: 3}
  - {fileID: 388744375119094719, guid: 04c385e6e8ec64c42977d2c7507dbfef, type: 3}
  - {fileID: 965966136424047740, guid: 598e2fb3900ca9a41bd90b635e007bfb, type: 3}
  - {fileID: 2357271995734025533, guid: 01fe85f2c0eb30e479e80fcc56ccea08, type: 3}
  - {fileID: 6619542590237342562, guid: 79e32531114a26c43abeac927dba303b, type: 3}
  - {fileID: 3177992209109166313, guid: 61febe7db70b8b74ca22b666cf45a1b1, type: 3}
  - {fileID: 8529513407174323629, guid: 63769d00f4eb0db4991aba5ac472e89c, type: 3}
  - {fileID: 7793588194637625146, guid: bd22cf20949ec3b478a63dd4146daa73, type: 3}
  - {fileID: 3957992015984202502, guid: a130b19b125698848a475f14104297ae, type: 3}
  - {fileID: 4571344292210923984, guid: e627ebe1ab6de47498a4d5932fe2a691, type: 3}
  - {fileID: 658704988826271280, guid: ff96bb32a8855864398e4e6f758d77a6, type: 3}
  - {fileID: 2851023029904572674, guid: 2a674c4aa4beed44886a3a62c779b7bf, type: 3}
  - {fileID: 3416623778888968843, guid: 2ba519e54f832734c8ea4d9c89cdeade, type: 3}
