%YAML 1.1
%TAG !u! tag:unity3d.com,2011:
--- !u!114 &11400000
MonoBehaviour:
  m_ObjectHideFlags: 0
  m_CorrespondingSourceObject: {fileID: 0}
  m_PrefabInstance: {fileID: 0}
  m_PrefabAsset: {fileID: 0}
  m_GameObject: {fileID: 0}
  m_Enabled: 1
  m_EditorHideFlags: 0
  m_Script: {fileID: 11500000, guid: 4f02cb6a2ab51c0419aeee7dfa0292af, type: 3}
  m_Name: StairDataBase
  m_EditorClassIdentifier: 
  groupBase: 10
  groupName: "\u041B\u0435\u0441\u043D\u0438\u0446\u044B"
  spriteGroup: {fileID: 21300000, guid: 18684b71a28be7d4a93ccbac6d818e0a, type: 3}
  details:
  - {fileID: 526697299768187620, guid: a778519ea7c7d874290a5dfcb36bc523, type: 3}
  - {fileID: 3569377738283238190, guid: 6de9c941ebe0a5f46b9289e70f4ffb3d, type: 3}
