%YAML 1.1
%TAG !u! tag:unity3d.com,2011:
--- !u!114 &11400000
MonoBehaviour:
  m_ObjectHideFlags: 0
  m_CorrespondingSourceObject: {fileID: 0}
  m_PrefabInstance: {fileID: 0}
  m_PrefabAsset: {fileID: 0}
  m_GameObject: {fileID: 0}
  m_Enabled: 1
  m_EditorHideFlags: 0
  m_Script: {fileID: 11500000, guid: 4210571edc2862142a574a649baed7d7, type: 3}
  m_Name: Map2
  m_EditorClassIdentifier: 
  NameMapBuild: Map 2
  Name: "\u0414\u043B\u044F \u0440\u0430\u0437\u0440\u0430\u0431\u043E\u0442\u0447\u0438\u043A\u043E\u0432"
  IconMap: {fileID: 0}
