%YAML 1.1
%TAG !u! tag:unity3d.com,2011:
--- !u!114 &11400000
MonoBehaviour:
  m_ObjectHideFlags: 0
  m_CorrespondingSourceObject: {fileID: 0}
  m_PrefabInstance: {fileID: 0}
  m_PrefabAsset: {fileID: 0}
  m_GameObject: {fileID: 0}
  m_Enabled: 1
  m_EditorHideFlags: 0
  m_Script: {fileID: 11500000, guid: bea9a9f16435cd347a49f22a81856ffb, type: 3}
  m_Name: FullDatabase
  m_EditorClassIdentifier: 
  fullDatabases:
  - {fileID: 11400000, guid: 2e481fddb4f8748459f4e1c94394b7dc, type: 2}
  - {fileID: 11400000, guid: b09c172970860884f883a8b9a7e58c4f, type: 2}
  - {fileID: 11400000, guid: d9e9ba878f274f84bb42c2438d87d7cd, type: 2}
  - {fileID: 11400000, guid: b20678105633e9349a7eb75ebb414326, type: 2}
  - {fileID: 11400000, guid: b195b092042255948900a76591588916, type: 2}
  - {fileID: 11400000, guid: 068509eec4951d04bb08a5e38d7830ce, type: 2}
  - {fileID: 11400000, guid: 77076a3aff01973458c282fa1fadbb3b, type: 2}
  - {fileID: 11400000, guid: ec269bc1814c71843b44331a03a6c289, type: 2}
  - {fileID: 11400000, guid: c85dd6a1c012fc74080e08597787f8f6, type: 2}
  - {fileID: 11400000, guid: f8c38456b2852364aafb4c93e0a824bc, type: 2}
  - {fileID: 11400000, guid: 6958781832101364b891f9dcf6b29c1d, type: 2}
  - {fileID: 11400000, guid: 77b4db0fd6b89c04c918d8ff81cddb89, type: 2}
  - {fileID: 11400000, guid: f6a386b5f8e558d47bb309f9ababe04d, type: 2}
  - {fileID: 11400000, guid: 155eb22a291f9d1489fa091075a1c887, type: 2}
  - {fileID: 11400000, guid: 92f5ee2fb48ed8a48b35a746aed1ce64, type: 2}
  - {fileID: 11400000, guid: b12ac581dec40384c9379d2c888b6671, type: 2}
  - {fileID: 11400000, guid: 907ccdb2c54161c41941721da79ea13e, type: 2}
  - {fileID: 11400000, guid: 5b14eb3dcbf856b498aeecf4afa704c4, type: 2}
  - {fileID: 11400000, guid: 725e8d531b425ab4fac2d21aeb74d92d, type: 2}
  - {fileID: 11400000, guid: f4d94e79d76a75c4a9823ea8a7929f3f, type: 2}
  - {fileID: 11400000, guid: ee36039016c9ab649900293c254a464a, type: 2}
  - {fileID: 11400000, guid: da083222a5695e84dae23484721c7a09, type: 2}
  - {fileID: 11400000, guid: 18b370fea71f34e4e99679422d716064, type: 2}
  - {fileID: 11400000, guid: da34d7ce578ab3441b7f94fc9bdfe99f, type: 2}
  - {fileID: 11400000, guid: 836be89d47a75d14096e7f599b9e8644, type: 2}
  - {fileID: 11400000, guid: d3a570d2a0d100f45a621918c580243c, type: 2}
  - {fileID: 11400000, guid: cf9e40907fb001041a0fc7f58ac2aad7, type: 2}
  - {fileID: 11400000, guid: b79b15412d98afd44a3916de7abbecc0, type: 2}
  - {fileID: 11400000, guid: eca3e222e98fe7f47abfa0c1c7740684, type: 2}
  - {fileID: 11400000, guid: a127dcd41a926d94f82aa48f89f67efc, type: 2}
  - {fileID: 11400000, guid: 8751d509ddc49184eb18bbd1c1176b96, type: 2}
  - {fileID: 11400000, guid: de62f4b7ba0945e428e116f516558df7, type: 2}
  - {fileID: 11400000, guid: c51e5c7a04aabc74c9ac8e32b2716b2f, type: 2}
